[{
        "name": "KLAPY[2].WE.Wychylenie",
        "progr": "KLAPY"
    },
    {
        "name": "KLAPY[2].WE.czasWysterowania",
        "progr": "KLAPY"
    },
    {
        "name": "KLAPY[2].KALIBRACJA.PozycjaOtwarcia",
        "progr": "KLAPY"
    },
    {
        "name": "KLAPY[2].KALIBRACJA.CzasCalkowity",
        "progr": "KLAPY"
    },
    {
        "name": "Comm1",
        "progr": null
    },

    {
        "name": "MERCOR[4].STATUS.ZasilanieOK",
        "progr": "KLAPY"
    },
    {
        "name": "KLAPY[2].STER.Przesterowanie",
        "progr": "KLAPY"
    },
    {
        "name": "KLAPY[2].STER.USTAW_PROCENTOWO",
        "progr": "KLAPY"
    },
    {
        "name": "KLAPY[2].STER.PROCENT_OTWARCIA",
        "progr": "KLAPY"
    },
    {
        "name": "KLAPY[2].TRYB.AUTO",
        "progr": "KLAPY"
    },
    {
        "name": "KLAPY[2].TRYB.RECZNY",
        "progr": "KLAPY"
    },
    {
        "name": "KLAPY[2].TRYB.LOKALNY",
        "progr": "KLAPY"
    }




]